<svg xmlns="http://www.w3.org/2000/svg" xmlns:xlink="http://www.w3.org/1999/xlink" width="73" height="73" viewBox="0 0 73 73">
    <defs>
        <path id="i8nr1vas9c" d="M13.896.249c-1.85.27-4.512 1.081-8.347 6.403C1.714 11.972.767 27.846.767 31.002c0 3.157-.767 9.38-.767 9.38s.948 3.878 1.94 5.456c.992 1.578 5.956 1.713 5.956 1.713s-.632.451 10.963-.045c11.64-.405 14.437-3.878 14.573-4.69.135-.81.586-19.119-1.94-27.867-2.527-8.748-5.37-11.184-7.354-12.941-2.03-1.76-4.963-1.76-4.963-1.76s-1.524-.12-3.088-.12c-.782 0-1.574.03-2.191.12z"/>
        <path id="cmi8n7f08e" d="M15.61 8.42c-1.529 1.735-5.654.77-7.282.578-1.628-.193-4.124.004-7.278 2.604-3.154 2.599 3.7 14.011 3.7 14.011l31.957-.293s7.245-4.556 5.905-10.535c-1.341-5.98-3.927-5.402-9.099-5.081-5.17.32-6.223-1.188-7.411-2.442-1.187-1.254-.069-6.623-.069-6.623L16.848.318s.29 6.365-1.238 8.101z"/>
        <path id="hkiflagcpg" d="M.157.226C.06.23-.055.331.029.375c.091.047.39.031.444.013L.746.295S.498.225.208.225L.157.227z"/>
        <path id="o6qoevwzpi" d="M.383.352C.439.43.68.458.83.44c.149-.018.288-.088.288-.088S.918.197.712.187L.682.186c-.194 0-.352.091-.3.166z"/>
        <path id="ossd6935dk" d="M22.446.22l-9.49.1s.028 3.547-.216 6.086c-.245 2.54-1.73 3.676-2.238 3.76-.507.085-7.128-.225-7.128-.225s.002 1.477-.336 3.678C2.7 15.819.302 16.412.302 16.412s.118 4.57 0 8.21c-.119 3.64 1.022 1.825 1.022 1.825l2.242.268 1.92-7.256 3.378-8.21s4.223-.593 4.645-1.016c.422-.424 1.182-4.147 1.182-4.147s1.942 2.116 3.247 3.47 7.9 1.778 7.9 1.778l8.04 15.939 1.273-11.37s-2.051-1.015-2.809-1.946-.594-3.26-.594-3.26 4.983-.464-1.182 0c-6.164.462-5.81-1.324-7.16-2.616-1.313-1.258.22-7.534.3-7.86h-1.26z"/>
        <path id="m2p9ufs4fm" d="M.973 3.161s.992 2.622 2.57 2.934c1.578.312 3.56-1.777 4.136-2.45.575-.671 2.014-2.98 2.014-2.98L0 .129.973 3.16z"/>
        <path id="2loe3sotxo" d="M6.309.38C2.666 1.42.162 6.53.162 6.53s-.364 9.77 0 11.578c.364 1.808.91 6.194 3.005 7.642 2.095 1.447 4.052 3.707 6.648 3.617 2.595-.09 7.285-4.024 7.922-5.517.638-1.447 1.912-8.23 1.958-9.27.045-1.04.41-8.003-1.32-10.446C16.895 2.1 12.033.129 8.345.128c-.737 0-1.428.08-2.036.253z"/>
        <path id="254zuw973q" d="M17.25.234c-2.115.013-4.59.38-6.509 2.033-2.568 2.211-7.105 10.99-8.74 15.026-.35.867-.568 1.515-.603 1.833C1.2 20.922.89 23.91.89 23.91s.85-4.468 1.392-5.686c.542-1.218 1.595-2.963 1.595-2.963s.622 7.755-.123 8.429c-.745.674-.621 7.825-.776 8.44-.154.614.078 4.76.078 4.76l2.63-8.262s-.155 6.342-1.006 7.954c-.85 1.612-.739 3.099-2.01 3.377-1.273.28-2.631.769-2.631.769s.893.196 1.813.204h.107c.453-.004.904-.057 1.252-.204C4.295 40.268 6.46 35.2 6.46 35.2l.697-6.572s1.006 3.373.851 4.627c-.155 1.254-1.16 4.785-1.16 4.785s1.72-3.43 2.059-4.785c.339-1.356.416-5.156.416-5.156l-1.934-3.646 2.554-8.046 5.114-10.059 6.324 1.462 5.031 2.326 2.01 9.42-1.196 10.25.665 5.164-1.463-3.915v2.687l-.798-1.382.782 4.99s.614 1.765.814 2.15c.2.383 2.598-.308 2.753-.999.155-.69.464-2.15.464-2.15s1.006 1.843 1.006 2.38v1.228s1.393-.767 1.393-1.995c0-1.229-1.96-7.84-2.257-9.755-.297-1.914.245-8.817.245-8.817s.542 2.604.851 3.756c.31 1.152.31 2.537 1.16 4.3.851 1.764 2.824 2.993 3.501 4.298.677 1.305 1.373 5.527 1.373 5.527s.15-.722.157-1.847v-.17c-.01-1.296-.21-3.074-1.008-4.892-1.548-3.531-3.145-5.748-3.558-7.677-.414-1.93-1.046-5.597-1.046-5.597s1.928 6.201 2.686 6.82c.758.62 1.396 2.309 1.396 2.309s-.993-2.687-1.396-3.993c-.403-1.304-2.77-11.528-4.274-13.274-1.504-1.747-3.35-4.258-4.244-5.534C25.533 2.143 22.693.502 20.57.397 19.805.358 18.717.24 17.493.234h-.244z"/>
        <path id="kfo8rto6fs" d="M3.433.004C2.516.054.18.976.18.976L0 1.502s1.509-.354 2.812-.747c1.302-.393 3.153.32 3.153.32S4.42.003 3.494.003l-.061.001z"/>
        <path id="fmgr9j7xdt" d="M3.268.01C2.218.046 1.159.53.77.84.11 1.372 0 1.883 0 1.883s.248-.442.309-.435l.061.008s.443-.552.849-.73c.406-.18 1.08-.539 1.98-.458 1.462.13 2.31 1.257 2.31 1.257s.244-.273-.105-.658C5.065.49 4.166.008 3.341.008l-.073.001z"/>
        <path id="j96rqu0uru" d="M.02.295c-.007.066.06.128.152.14.092.01.173-.033.181-.1C.36.27.293.209.201.198L.173.195c-.08 0-.145.042-.153.1z"/>
        <path id="p9ygdj8dkv" d="M.186 1.185S2.037.472 3.34.866c1.303.392 2.812.746 2.812.746l-.18-.526S3.635.164 2.718.114l-.06-.001C1.732.113.186 1.185.186 1.185z"/>
        <path id="47y8518f0w" d="M1.361.243C.461.586.009 1.143 0 1.322c-.008.177 1.313 1.234 2.707 1.03 1.394-.205 2.183-.429 2.305-.443.029-.003.082.013.144.028.064.016.14.033.206.027.132-.012.23-.106.23-.106S5.596 1.4 4.406.77C3.577.333 2.743.128 2.092.128c-.284 0-.533.04-.731.115z"/>
        <path id="xmnahlwapx" d="M1.676.249c-.653 0-1.35.166-1.59.298-.24.133.093.945.145 1.042.053.095.247.28.247.28s.318.346 1.26.23C3.458 1.89 3.728.835 3.728.835S2.334.25 1.68.249h-.004z"/>
        <path id="vdafr1m8ay" d="M.188 1.22c-.349.386-.104.658-.104.658S.932.752 2.394.621c.898-.08 1.573.279 1.98.458.405.178.848.73.848.73l.06-.007c.061-.008.31.435.31.435s-.11-.512-.77-1.042C4.432.885 3.373.401 2.323.363L2.252.362C1.426.362.527.845.188 1.22z"/>
        <path id="v1lc02ieaz" d="M.172.196C.081.208.012.27.02.336.028.402.11.446.2.435.294.423.36.36.354.295.346.238.279.196.199.196L.172.196z"/>
        <path id="7sgcdzu3dA" d="M9.034.183c-.098.052-.14.191-.177.217-.224.166-1.007.36-1.476.403-.56.051-1.227.076-1.5.128-.274.051-1.365.218-1.365.218S3.424.969 3.046.944C2.666.918 1.59.854 1.302.803 1.125.77.562.603.386.558.208.512.22.39.064.46-.16.564.275.675.275.675s2.391.36 2.619.398c.227.038 1.485.18 1.485.18s1.35-.206 1.82-.218c.47-.014 1.546-.156 2-.31.258-.087.4-.155.641-.224.068-.02.265-.025.42-.104.073-.037.105-.268-.058-.268-.042 0-.097.015-.168.054z"/>
        <path id="0ehxz3u74B" d="M4.264.928c0 .298-.107.516-.295.596-.103.046-.231.007-.398-.031-.134-.03-.292-.062-.482-.05-.427.028-.356.352-.99.352-.324 0-.665-.324-.665-.324-.213-.136-.694-.136-1.068-.136C-.007 1.335.103.24.103.24s-.37 1.311.29 1.448c.267.055.934.135.934.135s.534.245 1.095.163c.56-.082.694-.217 1.04-.19.347.027.854-.027.988-.461S4.103.129 4.103.129s.16.5.16.8z"/>
        <path id="u0zc9yrp1C" d="M5.377.974L0 12.642s.273 3.702.822 6.926c.55 3.222 1.788 4.553 1.788 4.553s-.662-2.194-1.196-4.55c-.535-2.356-.192-5.41-.176-6.623.016-1.214 2.047-4.323 2.659-5.17.61-.845 3.616-6.689 3.616-6.689s8.683 3.576 9.395 4.806c.711 1.23 1.77 5.344 1.81 6.168.038.824-.148 7.85-.148 7.85l1.188-7.376-2.069-7.218-2.084-2.577-4.298-1.614-3.805-1-2.125.846z"/>
        <path id="aml3lws03E" d="M14.726.327C11.95.636 8.602 3.885 7.986 5.76c-.616 1.874-1.29 5.68-1.29 5.68s1.843-4.322 2.87-5.99c1.025-1.666 2.903-1.768 2.903-1.768s-.43.72-1.076 1.028c-.645.309-2.117 2.47-3.038 5.372-.921 2.902-2.272 7.162-2.825 9.03-.552 1.866-1.842 3.875-1.842 3.875s.614-.37 2.15-2.347c1.534-1.975 3.07-6.619 3.07-6.619s-.124 4.026-.86 5.324C7.31 20.643 1.294 26.013.31 27.989c-.982 1.976.676 3.979.676 3.979s-.123-1.324 0-2.311c.122-.988 6.693-6.793 7.736-9.139C9.767 18.172 14.31 6.81 16.03 5.7c1.72-1.112 4.913.864 4.913.864s3.868.864 5.288 2.717c1.42 1.852 3 10.373 3.37 12.72.367 2.346 2.578 7.471 3.56 9.138.983 1.667 3.746 6.854 3.746 6.854s-4.114-9.015-5.035-11.547c-.921-2.531-1.044-5.989-1.473-7.985-.43-1.996-1.669-7.768-3.373-10.415-1.703-2.647-3.996-2.779-3.996-2.779s2.58-.123 3.996 1.174c1.418 1.296 4.11 9.694 4.11 9.694l-1.229-5.31s.983 1.358 1.29 2.47c.306 1.111 2.271 6.052 2.271 6.052s-.123-2.656-1.412-6.3c-1.29-3.642-1.78-5.68-2.64-6.73-.86-1.05-2.39-1.852-2.39-1.852s.61-.124 1.285.185c.675.31 2.517 1.89 2.517 1.89s-.837-1.51-1.754-2.384c-.916-.874-3.035-.987-4.596-.987-1.56 0-3.85 1.728-3.85 1.728s-.73-1.606-1.498-2.285c-.769-.679-4.01-.802-4.01-.802s3.367-.865 4.706-.494c1.34.37 1.856 1.296 1.856 1.296s-.187-1.234-1.054-1.913c-.519-.406-1.533-.57-2.857-.57-.893 0-1.926.074-3.044.199z"/>
        <path id="eu2rr7zr6F" d="M2.353.146C.813.246 0 1.628 0 1.628S2.353.146 4.285.718c1.125.034 2.425.91 2.425.91s-.445-.463-.84-.843C5.52.45 4.244.13 2.89.13c-.179 0-.358.005-.537.017z"/>
        <circle id="mds42tt3xa" cx="32.5" cy="32.5" r="32.5"/>
    </defs>
    <g fill="none" fill-rule="evenodd">
        <g>
            <g>
                <g transform="translate(-52.000000, -154.000000) translate(56.000000, 158.000000)">
                    <mask id="wtpywau6sb" fill="#fff">
                        <use xlink:href="#mds42tt3xa"/>
                    </mask>
                    <circle cx="32.5" cy="32.5" r="34.5" stroke="#DDD" stroke-width="4"/>
                    <g mask="url(#wtpywau6sb)">
                        <g>
                            <g transform="translate(6.383929, 11.607143) translate(9.319604, 0.515847)">
                                <mask id="qpl6jpnwid" fill="#fff">
                                    <use xlink:href="#i8nr1vas9c"/>
                                </mask>
                                <path fill="#26130E" d="M-1.864 49.614L35.414 49.614 35.414 -1.746 -1.864 -1.746z" mask="url(#qpl6jpnwid)"/>
                            </g>
                            <g transform="translate(6.383929, 11.607143) translate(5.218978, 31.631642)">
                                <mask id="0anqrehexf" fill="#fff">
                                    <use xlink:href="#cmi8n7f08e"/>
                                </mask>
                                <path fill="#FBBE9B" d="M-5.219 40.488L48.019 40.488 48.019 -1.557 -5.219 -1.557z" mask="url(#0anqrehexf)"/>
                            </g>
                            <g transform="translate(6.383929, 11.607143) translate(27.213243, 25.258527)">
                                <mask id="yggyjha8ih" fill="#fff">
                                    <use xlink:href="#hkiflagcpg"/>
                                </mask>
                                <path fill="#D2785C" d="M-1.864 2.28L2.609 2.28 2.609 -1.649 -1.864 -1.649z" mask="url(#yggyjha8ih)"/>
                            </g>
                            <g transform="translate(6.383929, 11.607143) translate(24.603754, 25.258527)">
                                <mask id="u6tnqx7n6j" fill="#fff">
                                    <use xlink:href="#o6qoevwzpi"/>
                                </mask>
                                <path fill="#CF795C" d="M-1.491 2.32L2.982 2.32 2.982 -1.689 -1.491 -1.689z" mask="url(#u6tnqx7n6j)"/>
                            </g>
                            <g transform="translate(6.383929, 11.607143) translate(8.946820, 30.506974)">
                                <mask id="53rg29flll" fill="#fff">
                                    <use xlink:href="#ossd6935dk"/>
                                </mask>
                                <path fill="#F9A984" d="M-3.646 41.366L39.101 41.366 39.101 -1.653 -3.646 -1.653z" mask="url(#53rg29flll)"/>
                            </g>
                            <g transform="translate(6.383929, 11.607143) translate(21.994265, 30.881863)">
                                <mask id="bfwi2mddnn" fill="#fff">
                                    <use xlink:href="#m2p9ufs4fm"/>
                                </mask>
                                <path fill="#E58869" d="M-1.864 8.001L11.556 8.001 11.556 -1.746 -1.864 -1.746z" mask="url(#bfwi2mddnn)"/>
                            </g>
                            <g transform="translate(6.383929, 11.607143) translate(16.775287, 5.389406)">
                                <mask id="meo63ud0tp" fill="#fff">
                                    <use xlink:href="#2loe3sotxo"/>
                                </mask>
                                <path fill="#FBBE9B" d="M-1.864 31.244L21.621 31.244 21.621 -1.746 -1.864 -1.746z" mask="url(#meo63ud0tp)"/>
                            </g>
                            <g transform="translate(6.383929, 11.607143) translate(7.828467, 0.140958)">
                                <mask id="jb8qobxnkr" fill="#fff">
                                    <use xlink:href="#254zuw973q"/>
                                </mask>
                                <path fill="#391F15" d="M-1.824 42.807L39.735 42.807 39.735 -1.641 -1.824 -1.641z" mask="url(#jb8qobxnkr)"/>
                            </g>
                            <g transform="translate(6.383929, 11.607143) translate(29.077164, 16.261189)"/>
                            <g transform="translate(6.383929, 11.607143) translate(28.704380, 18.510524)"/>
                            <g transform="translate(6.383929, 11.607143) translate(31.313869, 19.260302)"/>
                            <g transform="translate(6.383929, 11.607143) translate(17.893639, 15.886300)"/>
                            <g transform="translate(6.383929, 11.607143) translate(18.639208, 18.510524)"/>
                            <g transform="translate(6.383929, 11.607143) translate(19.384776, 18.510524)"/>
                            <g transform="translate(6.383929, 11.607143) translate(18.639208, 18.135634)"/>
                            <g transform="translate(6.383929, 11.607143) translate(20.875912, 18.885413)"/>
                            <g transform="translate(6.383929, 11.607143) translate(21.994265, 27.507862)"/>
                            <g transform="translate(6.383929, 11.607143) translate(24.230970, 24.133860)"/>
                            <g transform="translate(6.383929, 11.607143) translate(16.775287, 6.139184)">
                                <mask id="9skeo6q3dD" fill="#fff">
                                    <use xlink:href="#u0zc9yrp1C"/>
                                </mask>
                                <path fill="#F9A984" d="M-1.864 25.996L21.621 25.996 21.621 -1.746 -1.864 -1.746z" mask="url(#9skeo6q3dD)"/>
                            </g>
                            <g transform="translate(6.383929, 11.607143) translate(7.455683, 1.640515)">
                                <use fill="#633E35" xlink:href="#aml3lws03E"/>
                            </g>
                            <g transform="translate(6.383929, 11.607143) translate(29.077164, 3.140071)">
                                <mask id="wqwtemtjwG" fill="#fff">
                                    <use xlink:href="#eu2rr7zr6F"/>
                                </mask>
                                <path fill="#633E35" d="M-1.864 3.503L8.574 3.503 8.574 -1.746 -1.864 -1.746z" mask="url(#wqwtemtjwG)"/>
                            </g>
                            <g>
                                <path fill="#DFA52F" d="M0 27.511s5.088-16.73 5.457-17.56c.368-.83 1.696-.904 1.696-.904s0-1.038 3.17-1.632c3.171-.593 8.554-1.557 8.554-1.557l-2.776 14.09 6.182-3.115L35.89 4.307s8.649 5.11 10.344 6.075c1.696.963 3.835 2.669 3.835 2.669s1.032 1.186.958 2.966c-.073 1.78-2.751 12.22-2.751 12.22L0 27.511z" transform="translate(6.383929, 11.607143) translate(0.000000, 31.602804)"/>
                                <path fill="#92660E" d="M15.91 27.675L16.157 20.985 20.646 18.761 28.119 12.307 34.11 4.679 36.533 9.324 36.533 12.422 32.491 12.228 36.533 15.355 17.129 27.769z" transform="translate(6.383929, 11.607143) translate(0.000000, 31.602804)"/>
                                <path fill="#FFF" d="M15.675 20.985l1.453-2.225 8.362-7.044s4.696-6.457 5.302-7.518C31.398 3.136 32.47.075 32.47.075s3.913 4.044 4.364 4.955c.452.912.209 2.576.209 2.576s.226 1.752.386 2.688c.16.936.464 2.366.464 2.366s-4.052-1.882-4.851-3.208c-.8-1.326-1.614-.734-1.614-.734s-6.692 7.667-9.573 9.368c-2.88 1.701-6.18 2.9-6.18 2.9" transform="translate(6.383929, 11.607143) translate(0.000000, 31.602804)"/>
                                <path fill="#92660E" d="M12.543 27.679L9.32 21.504 9.32 19.557 9.32 14.37 14.416 15.292 11.869 13.392 15.675 9.331 17.129 13.694 17.129 17.156 15.675 21.466 15.463 27.715z" transform="translate(6.383929, 11.607143) translate(0.000000, 31.602804)"/>
                                <path fill="#FFF" d="M21.853 1.402s-3.499 4.541-4.896 5.406c-1.398.865-6.989 3.568-6.989 3.568l4.731-.649s2.19 3.19 2.19 4.812c0 1.622-.978 6.358-.978 6.358s2.909-6.304 3.321-8.359c.412-2.054-.096-3.192-.096-3.192l1.98-1.316.737-2.833V1.402z" transform="translate(6.383929, 11.607143) translate(0.000000, 31.602804)"/>
                                <path fill="#62450C" d="M15.893 27.715L19.601 19.292 15.859 20.704 15.667 21.57 15.463 27.715z" transform="translate(6.383929, 11.607143) translate(0.000000, 31.602804)"/>
                            </g>
                        </g>
                    </g>
                </g>
            </g>
        </g>
    </g>
</svg>
