<svg xmlns="http://www.w3.org/2000/svg" width="116" height="32" viewBox="0 0 116 32">
    <g fill="none" fill-rule="evenodd">
        <g>
            <g>
                <g>
                    <g>
                        <path fill="#454871" fill-rule="nonzero" d="M115.458 1.634l-2.842 9.653-2.927-2.727-20.775 22.305-.256.275-.336-.17L46.39 9.789.71 31.452l-.428-.904L46.184 8.78l.221-.105.219.11L88.438 29.91l20.519-22.031-2.926-2.725 9.427-3.519z" transform="translate(-926.000000, -338.000000) translate(281.000000, 211.000000) translate(24.000000, 94.000000) translate(621.000000, 33.000000)"/>
                        <path fill="#0FAA14" d="M0 0H4V4H0z" transform="translate(-926.000000, -338.000000) translate(281.000000, 211.000000) translate(24.000000, 94.000000) translate(621.000000, 33.000000)"/>
                        <path fill="#FF6969" d="M45 22H49V26H45z" transform="translate(-926.000000, -338.000000) translate(281.000000, 211.000000) translate(24.000000, 94.000000) translate(621.000000, 33.000000)"/>
                        <path fill="#0083CA" d="M94 10H98V14H94z" transform="translate(-926.000000, -338.000000) translate(281.000000, 211.000000) translate(24.000000, 94.000000) translate(621.000000, 33.000000)"/>
                    </g>
                </g>
            </g>
        </g>
    </g>
</svg>
