<svg xmlns="http://www.w3.org/2000/svg" width="336.501" height="266.38" viewBox="0 0 336.501 266.38">
    <defs>
        <radialGradient id="radial-gradient" cx=".691" cy=".316" r=".593" gradientTransform="rotate(102.155 .69 .316)" gradientUnits="objectBoundingBox">
            <stop offset="0" stop-color="#292828"/>
            <stop offset="1"/>
        </radialGradient>
        <style>
            .cls-2{fill:#4565db}.cls-5,.cls-9{fill:#04051b;font-weight:700;font-family:Montserrat-Bold,Montserrat}.cls-5{font-size:8px}.cls-8{fill:#e8e828}.cls-9{font-size:18px}
        </style>
    </defs>
    <g id="Group_698" transform="translate(-815 -1168)">
        <g id="Group_621" opacity="0.3" transform="translate(830.121 1167.574)">
            <g id="Group_65" transform="translate(2 3)">
                <path id="Rectangle_461" d="M0 0H10.974V10.974H0z" class="cls-2" transform="rotate(-37 82.03 -40.603)"/>
                <g id="Group_58" transform="translate(273.133 31.398)">
                    <path id="Rectangle_197" d="M0 0H12.231V12.231H0z" class="cls-2" transform="rotate(-45 10.44 4.324)"/>
                </g>
                <g id="Group_60" transform="translate(281.782 185.892)">
                    <path id="Rectangle_199" d="M0 0H18.579V18.579H0z" class="cls-2" transform="rotate(-45 15.858 6.572)"/>
                </g>
                <g id="Group_62" transform="rotate(8 55.573 941.26)">
                    <path id="Rectangle_201" d="M0 0H22.223V22.223H0z" class="cls-2" transform="rotate(-45 18.968 7.857)"/>
                    <path id="Path_67" d="M31.427 15.714L15.713 0 0 15.714z" class="cls-2"/>
                </g>
                <g id="Group_670" transform="rotate(8 -1413.994 476.384)">
                    <path id="Rectangle_201-2" d="M0 0H22.223V22.223H0z" class="cls-2" transform="rotate(-45 18.968 7.857)"/>
                    <path id="Path_67-2" d="M31.427 15.714L15.713 0 0 15.714z" class="cls-2"/>
                </g>
                <g id="Group_64" transform="translate(57.895 244.674)">
                    <path id="Rectangle_203" d="M0 0H13.528V13.528H0z" class="cls-2" transform="rotate(-45 11.546 4.782)"/>
                </g>
                <path id="Rectangle_303" d="M0 0H12.535V12.535H0z" class="cls-2" transform="rotate(-37 119.772 -269.312)"/>
                <text id="_" fill="#04051b" font-family="Montserrat-Bold, Montserrat" font-size="14px" font-weight="700" transform="translate(61.076 225)">
                    <tspan x="0" y="0">¥</tspan>
                </text>
                <text id="_2" fill="#04051b" font-family="LeelawadeeUI-Bold, Leelawadee UI" font-size="14px" font-weight="700" transform="translate(140.076 23)">
                    <tspan x="0" y="0">฿</tspan>
                </text>
                <text id="лв" class="cls-5" transform="translate(190.076 21)">
                    <tspan x="0" y="0">лв</tspan>
                </text>
                <text id="_3" fill="#04051b" font-family="LeelawadeeUI-Bold, Leelawadee UI" font-size="8px" font-weight="700" transform="translate(280.076 43)">
                    <tspan x="0" y="0">฿</tspan>
                </text>
                <text id="_4" class="cls-5" transform="translate(293.076 202.001)">
                    <tspan x="0" y="0">$</tspan>
                </text>
                <text id="лв-2" class="cls-5" transform="translate(62.076 256.001)">
                    <tspan x="0" y="0">лв</tspan>
                </text>
                <text id="_5" class="cls-5" transform="translate(46.076 45.001)">
                    <tspan x="0" y="0">£</tspan>
                </text>
            </g>
        </g>
        <path id="Rectangle_464" d="M0 0H5.304V5.304H0z" class="cls-2" transform="rotate(-45 2137.056 -706.991)"/>
        <path id="Rectangle_200" d="M0 0H11.383V11.383H0z" class="cls-2" transform="rotate(-45 1897.345 -503.857)"/>
        <path id="Rectangle_465" d="M0 0H10.39V10.39H0z" class="cls-2" transform="rotate(-45 2042.892 -331.846)"/>
        <g id="Group_671" transform="translate(878 1191)">
            <g id="Group_731">
                <circle id="Ellipse_71" cx="112.211" cy="112.211" r="112.211" fill="url(#radial-gradient)" transform="translate(-.002)"/>
                <g id="Group_730">
                    <g id="Group_729">
                        <g id="Group_700" transform="translate(-878 -3626)">
                            <g id="iconfinder_Technology_Mix_-_Final-13_998685" transform="translate(923.1 3676)">
                                <g id="Group_702" transform="translate(67.614 102.711)">
                                    <g id="Group_700-2" transform="translate(.298 .224)">
                                        <path id="Path_514" d="M102.678 157.1a1.565 1.565 0 1 0 2.213.06 1.535 1.535 0 0 0-2.213-.06zm1.794 1.854a1.015 1.015 0 1 1 0-1.435.977.977 0 0 1 0 1.438z" transform="translate(-102.198 -156.662)"/>
                                    </g>
                                    <g id="Group_701">
                                        <path id="Path_515" d="M103.554 159.883a1.838 1.838 0 0 1-1.854-1.854 1.629 1.629 0 0 1 .538-1.256 1.86 1.86 0 0 1 2.572.06 1.806 1.806 0 0 1-.06 2.572 1.572 1.572 0 0 1-1.196.478zm0-2.572a.731.731 0 0 0-.538.239.758.758 0 0 0-.239.538.649.649 0 0 0 .239.538.778.778 0 0 0 1.316-.538.649.649 0 0 0-.239-.538.758.758 0 0 0-.539-.239z" transform="translate(-101.7 -156.287)"/>
                                    </g>
                                </g>
                                <g id="Group_705" transform="translate(32.748 67.135)">
                                    <g id="Group_703" transform="translate(.381 .441)">
                                        <path id="Path_516" d="M63.272 98.352a2.653 2.653 0 0 0-3.768-.06l-14.652 14.174a2.653 2.653 0 0 0-.06 3.768l26.672 27.51a2.653 2.653 0 0 0 3.768.06l14.652-14.174a2.653 2.653 0 0 0 .06-3.768zm26.314 27.869a2.1 2.1 0 0 1-.06 2.99l-14.652 14.173a2.1 2.1 0 0 1-2.99-.06l-26.732-27.51a2.166 2.166 0 0 1 0-3.05L59.8 98.591a2.167 2.167 0 0 1 3.05.06z" transform="translate(-44.037 -97.537)"/>
                                    </g>
                                    <g id="Group_704">
                                        <path id="Path_517" d="M73.182 144.763a3.027 3.027 0 0 1-2.213-.957L44.3 116.3a3.071 3.071 0 0 1-.9-2.213 3.129 3.129 0 0 1 .957-2.213L59.009 97.7a3.035 3.035 0 0 1 4.366.06l26.672 27.51a3.122 3.122 0 0 1-.06 4.425l-14.652 14.17a3.31 3.31 0 0 1-2.153.898zm-12.14-46.588a1.634 1.634 0 0 0-1.136.478l-14.652 14.174a1.734 1.734 0 0 0 0 2.392l26.732 27.51a1.681 1.681 0 0 0 2.332.06l14.652-14.173a1.7 1.7 0 0 0 .06-2.392L62.3 98.714a1.721 1.721 0 0 0-1.258-.539z" transform="translate(-43.4 -96.8)"/>
                                    </g>
                                </g>
                                <g id="Group_708" transform="translate(35.977 70.424)">
                                    <g id="Group_706" transform="translate(.658 .658)">
                                        <path id="Path_518" d="M64.851 104.177L87.7 127.74l-14.237 13.815-22.845-23.563 14.233-13.815m.06-.777L49.9 117.932l23.563 24.28 15.01-14.532-23.562-24.28z" transform="translate(-49.9 -103.4)"/>
                                    </g>
                                    <g id="Group_707">
                                        <path id="Path_519" d="M73.02 142.428L48.8 117.49l15.669-15.19 24.22 24.938zM50.833 117.55l22.187 22.845 13.58-13.157-22.187-22.9z" transform="translate(-48.8 -102.3)"/>
                                    </g>
                                </g>
                                <g id="Group_710" transform="translate(39.961 74.267)">
                                    <g id="Group_709">
                                        <path id="Path_520" d="M56.621 114.212l4.485-4.306a.667.667 0 0 0 0-.957.622.622 0 0 0-.957 0l-4.485 4.306a.667.667 0 0 0 0 .957.728.728 0 0 0 .957 0z" transform="translate(-55.461 -108.725)"/>
                                    </g>
                                </g>
                                <g id="Group_712" transform="translate(45.975 83.152)">
                                    <g id="Group_711">
                                        <path id="Rectangle_489" d="M0 0H1.495V6.698H0z" transform="rotate(.85 .05 6.673)"/>
                                    </g>
                                </g>
                                <g id="Group_714" transform="translate(48.92 79.924)">
                                    <g id="Group_713">
                                        <path id="Rectangle_490" d="M0 0H1.495V12.918H0z" transform="rotate(.85 .096 12.942)"/>
                                    </g>
                                </g>
                                <g id="Group_716" transform="translate(41.36 23)">
                                    <g id="Group_715">
                                        <path id="Path_521" d="M108.274 36.755H57.8V23h50.474zM59.3 35.26h47.484V24.5H59.3z" transform="translate(-57.8 -23)"/>
                                    </g>
                                </g>
                                <g id="Group_718" transform="translate(45.546 27.067)">
                                    <g id="Group_717">
                                        <path id="Path_522" d="M107.081 39.249H64.8V29.8h42.281zM66.3 37.754h39.291V31.3H66.3z" transform="translate(-64.8 -29.8)"/>
                                    </g>
                                </g>
                                <g id="Group_720" transform="translate(16.9 35.26)">
                                    <g id="Group_719">
                                        <path id="Path_523" d="M116.294 63.355H71.979v-6.1H61.215v6.1H16.9V43.5h99.454v19.855zm-42.819-1.5h41.384V45H18.4v16.86h41.379v-6.1h13.755v6.1z" transform="translate(-16.9 -43.5)"/>
                                    </g>
                                </g>
                                <g id="Group_722" transform="translate(16.9 53.619)">
                                    <g id="Group_721">
                                        <path id="Path_524" d="M116.294 118.574H79.873v-1.5H114.8V75.7H73.474v12.26H59.719V75.7H18.4v41.384h26.428v1.5H16.9V74.2h44.315v12.26h10.764V74.2h44.315z" transform="translate(-16.9 -74.2)"/>
                                    </g>
                                </g>
                                <g id="Group_724" transform="translate(59.719 47.52)">
                                    <g id="Group_723">
                                        <path id="Path_525" d="M102.255 83.855H88.5V64h13.755zM90 82.36h10.76V65.5H90z" transform="translate(-88.5 -64)"/>
                                    </g>
                                </g>
                                <g id="Group_726" transform="translate(18.156 57.088)">
                                    <g id="Group_725">
                                        <path id="Rectangle_491" d="M0 0H42.461V1.794H0z"/>
                                    </g>
                                </g>
                                <g id="Group_728" transform="translate(73.175 57.088)">
                                    <g id="Group_727">
                                        <path id="Rectangle_492" d="M0 0H42.461V1.794H0z"/>
                                    </g>
                                </g>
                            </g>
                            <g id="iconfinder_Technology_Mix_-_Final-13_998685-2" transform="translate(921.1 3673)">
                                <g id="Group_702-2" transform="translate(67.614 102.711)">
                                    <g id="Group_700-3" transform="translate(.298 .224)">
                                        <path id="Path_514-2" d="M102.678 157.1a1.565 1.565 0 1 0 2.213.06 1.535 1.535 0 0 0-2.213-.06zm1.794 1.854a1.015 1.015 0 1 1 0-1.435.977.977 0 0 1 0 1.438z" class="cls-8" transform="translate(-102.198 -156.662)"/>
                                    </g>
                                    <g id="Group_701-2">
                                        <path id="Path_515-2" d="M103.554 159.883a1.838 1.838 0 0 1-1.854-1.854 1.629 1.629 0 0 1 .538-1.256 1.86 1.86 0 0 1 2.572.06 1.806 1.806 0 0 1-.06 2.572 1.572 1.572 0 0 1-1.196.478zm0-2.572a.731.731 0 0 0-.538.239.758.758 0 0 0-.239.538.649.649 0 0 0 .239.538.778.778 0 0 0 1.316-.538.649.649 0 0 0-.239-.538.758.758 0 0 0-.539-.239z" class="cls-8" transform="translate(-101.7 -156.287)"/>
                                    </g>
                                </g>
                                <g id="Group_705-2" transform="translate(32.748 67.135)">
                                    <g id="Group_703-2" transform="translate(.381 .441)">
                                        <path id="Path_516-2" d="M63.272 98.352a2.653 2.653 0 0 0-3.768-.06l-14.652 14.174a2.653 2.653 0 0 0-.06 3.768l26.672 27.51a2.653 2.653 0 0 0 3.768.06l14.652-14.174a2.653 2.653 0 0 0 .06-3.768zm26.314 27.869a2.1 2.1 0 0 1-.06 2.99l-14.652 14.173a2.1 2.1 0 0 1-2.99-.06l-26.732-27.51a2.166 2.166 0 0 1 0-3.05L59.8 98.591a2.167 2.167 0 0 1 3.05.06z" class="cls-8" transform="translate(-44.037 -97.537)"/>
                                    </g>
                                    <g id="Group_704-2">
                                        <path id="Path_517-2" d="M73.182 144.763a3.027 3.027 0 0 1-2.213-.957L44.3 116.3a3.071 3.071 0 0 1-.9-2.213 3.129 3.129 0 0 1 .957-2.213L59.009 97.7a3.035 3.035 0 0 1 4.366.06l26.672 27.51a3.122 3.122 0 0 1-.06 4.425l-14.652 14.17a3.31 3.31 0 0 1-2.153.898zm-12.14-46.588a1.634 1.634 0 0 0-1.136.478l-14.652 14.174a1.734 1.734 0 0 0 0 2.392l26.732 27.51a1.681 1.681 0 0 0 2.332.06l14.652-14.173a1.7 1.7 0 0 0 .06-2.392L62.3 98.714a1.721 1.721 0 0 0-1.258-.539z" class="cls-8" transform="translate(-43.4 -96.8)"/>
                                    </g>
                                </g>
                                <g id="Group_708-2" transform="translate(35.977 70.424)">
                                    <g id="Group_706-2" transform="translate(.658 .658)">
                                        <path id="Path_518-2" d="M64.851 104.177L87.7 127.74l-14.237 13.815-22.845-23.563 14.233-13.815m.06-.777L49.9 117.932l23.563 24.28 15.01-14.532-23.562-24.28z" class="cls-8" transform="translate(-49.9 -103.4)"/>
                                    </g>
                                    <g id="Group_707-2">
                                        <path id="Path_519-2" d="M73.02 142.428L48.8 117.49l15.669-15.19 24.22 24.938zM50.833 117.55l22.187 22.845 13.58-13.157-22.187-22.9z" class="cls-8" transform="translate(-48.8 -102.3)"/>
                                    </g>
                                </g>
                                <g id="Group_710-2" transform="translate(39.961 74.267)">
                                    <g id="Group_709-2">
                                        <path id="Path_520-2" d="M56.621 114.212l4.485-4.306a.667.667 0 0 0 0-.957.622.622 0 0 0-.957 0l-4.485 4.306a.667.667 0 0 0 0 .957.728.728 0 0 0 .957 0z" class="cls-8" transform="translate(-55.461 -108.725)"/>
                                    </g>
                                </g>
                                <g id="Group_712-2" transform="translate(45.975 83.152)">
                                    <g id="Group_711-2">
                                        <path id="Rectangle_489-2" d="M0 0H1.495V6.698H0z" class="cls-8" transform="rotate(.85 .05 6.673)"/>
                                    </g>
                                </g>
                                <g id="Group_714-2" transform="translate(48.92 79.924)">
                                    <g id="Group_713-2">
                                        <path id="Rectangle_490-2" d="M0 0H1.495V12.918H0z" class="cls-8" transform="rotate(.85 .096 12.942)"/>
                                    </g>
                                </g>
                                <g id="Group_716-2" transform="translate(41.36 23)">
                                    <g id="Group_715-2">
                                        <path id="Path_521-2" d="M108.274 36.755H57.8V23h50.474zM59.3 35.26h47.484V24.5H59.3z" class="cls-8" transform="translate(-57.8 -23)"/>
                                    </g>
                                </g>
                                <g id="Group_718-2" transform="translate(45.546 27.067)">
                                    <g id="Group_717-2">
                                        <path id="Path_522-2" d="M107.081 39.249H64.8V29.8h42.281zM66.3 37.754h39.291V31.3H66.3z" class="cls-8" transform="translate(-64.8 -29.8)"/>
                                    </g>
                                </g>
                                <g id="Group_720-2" transform="translate(16.9 35.26)">
                                    <g id="Group_719-2">
                                        <path id="Path_523-2" d="M116.294 63.355H71.979v-6.1H61.215v6.1H16.9V43.5h99.454v19.855zm-42.819-1.5h41.384V45H18.4v16.86h41.379v-6.1h13.755v6.1z" class="cls-8" transform="translate(-16.9 -43.5)"/>
                                    </g>
                                </g>
                                <g id="Group_722-2" transform="translate(16.9 53.619)">
                                    <g id="Group_721-2">
                                        <path id="Path_524-2" d="M116.294 118.574H79.873v-1.5H114.8V75.7H73.474v12.26H59.719V75.7H18.4v41.384h26.428v1.5H16.9V74.2h44.315v12.26h10.764V74.2h44.315z" class="cls-8" transform="translate(-16.9 -74.2)"/>
                                    </g>
                                </g>
                                <g id="Group_724-2" transform="translate(59.719 47.52)">
                                    <g id="Group_723-2">
                                        <path id="Path_525-2" d="M102.255 83.855H88.5V64h13.755zM90 82.36h10.76V65.5H90z" class="cls-8" transform="translate(-88.5 -64)"/>
                                    </g>
                                </g>
                                <g id="Group_726-2" transform="translate(18.156 57.088)">
                                    <g id="Group_725-2">
                                        <path id="Rectangle_491-2" d="M0 0H42.461V1.794H0z" class="cls-8"/>
                                    </g>
                                </g>
                                <g id="Group_728-2" transform="translate(73.175 57.088)">
                                    <g id="Group_727-2">
                                        <path id="Rectangle_492-2" d="M0 0H42.461V1.794H0z" class="cls-8"/>
                                    </g>
                                </g>
                            </g>
                        </g>
                    </g>
                </g>
            </g>
        </g>
        <path id="Rectangle_470" d="M0 0H33.458V33.458H0z" class="cls-2" transform="rotate(-45 2045.383 -671.726)"/>
        <text id="_6" class="cls-9" transform="translate(1090.197 1255.574)">
            <tspan x="0" y="0">£</tspan>
        </text>
        <g id="Group_690" transform="translate(840 1277.855)">
            <path id="Rectangle_198" d="M0 0H30.81V30.81H0z" class="cls-2" transform="rotate(-45 26.298 10.893)"/>
        </g>
        <text id="_7" class="cls-9" transform="translate(855.197 1305.574)">
            <tspan x="0" y="0">$</tspan>
        </text>
        <g id="Group_691" transform="translate(1037.928 1385.543)">
            <path id="Rectangle_198-2" d="M0 0H30.81V30.81H0z" class="cls-2" transform="rotate(-45 26.298 10.893)"/>
        </g>
        <text id="лв-3" class="cls-9" transform="translate(1048.197 1411.574)">
            <tspan x="0" y="0">лв</tspan>
        </text>
    </g>
</svg>
