<svg xmlns="http://www.w3.org/2000/svg" width="844" height="422" viewBox="0 0 844 422">
    <defs>
        <filter id="Subtraction_1" width="844" height="422" x="0" y="0" filterUnits="userSpaceOnUse">
            <feOffset/>
            <feGaussianBlur result="blur" stdDeviation="10"/>
            <feFlood flood-opacity=".4"/>
            <feComposite in2="blur" operator="in"/>
            <feComposite in="SourceGraphic"/>
        </filter>
        <filter id="Path_221" width="36.737" height="36.736" x="350.626" y="73.101" filterUnits="userSpaceOnUse">
            <feOffset/>
            <feGaussianBlur result="blur-2" stdDeviation="3"/>
            <feFlood flood-color="#45ff03"/>
            <feComposite in2="blur-2" operator="in"/>
            <feComposite in="SourceGraphic"/>
        </filter>
        <filter id="Path_227" width="346.808" height="212.453" x="31.122" y="33.244" filterUnits="userSpaceOnUse">
            <feOffset/>
            <feGaussianBlur result="blur-3" stdDeviation="3"/>
            <feFlood flood-color="#45ff03"/>
            <feComposite in2="blur-3" operator="in"/>
            <feComposite in="SourceGraphic"/>
        </filter>
        <style>
            .cls-1,.cls-5{fill:none}.cls-1{stroke:#707070}.cls-7{fill:#fff}.cls-5{stroke:#fff;stroke-width:2px}.cls-7{font-size:16px;font-family:AvenirLTStd-Roman,Avenir LT Std}.cls-8{fill:#45ff03}.cls-10{stroke:none}
        </style>
    </defs>
    <g id="Group_405" transform="translate(-1837 -13674)">
        <g id="Group_401" transform="translate(-1493 17.2)">
            <path id="Line_10" d="M0 0L13.227 0" class="cls-1" transform="translate(3736.198 13828.003)"/>
            <path id="Path_94" d="M3.066 7H-9.5" class="cls-1" transform="translate(3399.805 13821.003)"/>
            <g id="Ellipse_19" fill="#fff" stroke="#707070" transform="translate(3565 13821.8)">
                <circle cx="5.5" cy="5.5" r="5.5" class="cls-10"/>
                <circle cx="5.5" cy="5.5" r="5" fill="none"/>
            </g>
            <path id="Path_95" d="M1751.892 404.891l-89.725-89.725" class="cls-1" transform="translate(1813.013 13417.16)"/>
            <g filter="url(#Subtraction_1)" transform="translate(3330 13656.8)">
                <g id="Subtraction_1-2" fill="#25273e">
                    <path d="M427.498 216.5H6.501c.033-14.115 1.471-28.217 4.276-41.923 2.765-13.515 6.892-26.81 12.265-39.512 5.276-12.473 11.805-24.504 19.408-35.757 7.53-11.147 16.179-21.628 25.704-31.154C77.68 58.63 88.161 49.98 99.308 42.45c11.253-7.603 23.283-14.132 35.756-19.408 12.703-5.373 25.997-9.5 39.512-12.265 13.867-2.838 28.14-4.277 42.423-4.277 14.283 0 28.556 1.44 42.424 4.277 13.515 2.766 26.809 6.892 39.512 12.265 12.473 5.276 24.503 11.805 35.756 19.408 11.147 7.53 21.628 16.179 31.154 25.704 9.525 9.526 18.173 20.007 25.704 31.154 7.602 11.253 14.132 23.284 19.408 35.757 5.373 12.703 9.5 25.997 12.265 39.512 2.805 13.706 4.243 27.808 4.276 41.924z" class="cls-10" transform="translate(24 24)"/>
                    <path fill="#4f526e" d="M426.996 216c-.065-13.915-1.499-27.811-4.264-41.323-2.759-13.483-6.876-26.745-12.236-39.418-5.263-12.443-11.777-24.444-19.361-35.671-7.513-11.12-16.14-21.577-25.644-31.08-9.503-9.503-19.96-18.131-31.08-25.644-11.226-7.584-23.228-14.098-35.671-19.361-12.673-5.36-25.935-9.477-39.418-12.236C245.488 8.436 231.248 7 217 7c-14.249 0-28.488 1.436-42.323 4.267-13.483 2.759-26.745 6.876-39.418 12.236-12.442 5.263-24.444 11.777-35.67 19.361-11.12 7.513-21.577 16.14-31.08 25.644-9.503 9.503-18.131 19.96-25.644 31.08-7.584 11.227-14.098 23.228-19.361 35.671-5.36 12.673-9.477 25.935-12.236 39.418-2.765 13.512-4.199 27.409-4.264 41.324h419.993m1.003 1zm0 0H6c0-14.318 1.443-28.625 4.287-42.524 2.772-13.548 6.909-26.873 12.295-39.607 5.288-12.503 11.833-24.562 19.454-35.842 7.548-11.173 16.216-21.68 25.765-31.227 9.548-9.549 20.054-18.217 31.227-25.765 11.28-7.621 23.339-14.166 35.84-19.454 12.735-5.386 26.06-9.523 39.608-12.295C188.376 7.443 202.683 6 216.999 6c14.316 0 28.623 1.443 42.524 4.287 13.547 2.772 26.873 6.909 39.607 12.295 12.502 5.288 24.56 11.833 35.841 19.454 11.173 7.548 21.68 16.216 31.227 25.765 9.548 9.548 18.217 20.054 25.765 31.227 7.62 11.28 14.166 23.339 19.454 35.842 5.386 12.734 9.523 26.06 12.295 39.607 2.844 13.9 4.287 28.208 4.287 42.524z" transform="translate(24 24)"/>
                </g>
            </g>
            <g id="Subtraction_2" fill="none">
                <path d="M404 200H0a199.552 199.552 0 0 1 4.1-40.307 197.857 197.857 0 0 1 30.4-71.515A202.156 202.156 0 0 1 161.29 4.063a205.97 205.97 0 0 1 81.42 0A202.2 202.2 0 0 1 369.5 88.178 197.733 197.733 0 0 1 404 200z" class="cls-10" transform="translate(3369 13696.8)"/>
                <path d="M398.936 195c-.296-11.557-1.616-23.07-3.936-34.295-2.587-12.516-6.447-24.826-11.472-36.59-4.935-11.552-11.044-22.695-18.157-33.119-7.046-10.327-15.139-20.038-24.053-28.864-8.916-8.827-18.726-16.841-29.158-23.82-10.532-7.044-21.79-13.095-33.464-17.983-11.889-4.979-24.33-8.803-36.979-11.365C228.735 6.334 215.373 5 202 5c-13.373 0-26.735 1.334-39.717 3.964-12.649 2.562-25.09 6.386-36.98 11.365-11.672 4.888-22.93 10.939-33.463 17.984-10.432 6.978-20.242 14.992-29.158 23.819-8.914 8.826-17.007 18.537-24.053 28.864-7.113 10.424-13.222 21.567-18.157 33.12-5.025 11.763-8.885 24.073-11.472 36.589C6.68 171.93 5.36 183.443 5.064 195h393.872m5.064 5H0c0-13.572 1.381-27.133 4.104-40.307 2.654-12.841 6.614-25.472 11.77-37.542C20.937 110.3 27.203 98.87 34.498 88.178c7.227-10.59 15.526-20.55 24.666-29.6 9.141-9.05 19.2-17.267 29.896-24.421 10.799-7.224 22.343-13.428 34.312-18.44 12.191-5.105 24.948-9.026 37.918-11.654C174.598 1.367 188.294 0 202 0s27.402 1.367 40.71 4.063c12.97 2.628 25.727 6.549 37.918 11.654 11.969 5.012 23.513 11.216 34.312 18.44 10.696 7.154 20.755 15.371 29.896 24.421 9.14 9.05 17.44 19.01 24.666 29.6 7.295 10.692 13.561 22.122 18.624 33.973 5.156 12.07 9.116 24.7 11.77 37.542C402.62 172.869 404 186.43 404 200z" transform="translate(3369 13696.8)"/>
            </g>
            <g id="Group_236" transform="translate(3390.305 13704.098)">
                <path id="Line_100" d="M0 8.278L0 0" class="cls-5" transform="translate(180.613)"/>
                <path id="Line_105" d="M3.575 7.865L0 0" class="cls-5" transform="translate(113.251 13.998)"/>
                <path id="Path_140" fill="#fff" stroke="#fff" stroke-width="2px" d="M6.347 6.007L0 0" transform="translate(58.199 46.171)"/>
                <path id="Path_127" d="M-7.5-6.566l-7.472-3.243" class="cls-5" transform="translate(36.371 102.451)"/>
                <path id="Path_126" d="M-9.314 0H-19.4" class="cls-5" transform="translate(19.402 145.55)"/>
                <path id="Line_105-2" d="M0 7.865L4.002 0" class="cls-5" transform="translate(246.234 13.998)"/>
                <path id="Line_106" d="M0 6.435L7.577 0" class="cls-5" transform="translate(296.996 46.886)"/>
                <path id="Path_127-2" d="M-1.433-6.431l8.9-3.378" class="cls-5" transform="translate(334.619 103.167)"/>
                <path id="Path_126-2" d="M-19.4 0h10.624" class="cls-5" transform="translate(371.548 145.55)"/>
            </g>
            <text id="Sell" class="cls-7" transform="translate(3454 13776.8)">
                <tspan x="0" y="0">Sell</tspan>
            </text>
            <text id="Strong_Sell" class="cls-7" transform="translate(3409 13854.8)">
                <tspan x="0" y="0">Strong Sell</tspan>
            </text>
            <text id="Strong_Buy" class="cls-7" transform="translate(3657 13854.8)">
                <tspan x="0" y="0">Strong Buy</tspan>
            </text>
            <text id="Buy" class="cls-7" transform="translate(3657 13776.8)">
                <tspan x="0" y="0">Buy</tspan>
            </text>
            <text id="Neutral" class="cls-7" transform="translate(3544 13741.8)">
                <tspan x="0" y="0">Neutral</tspan>
            </text>
        </g>
        <g filter="url(#Path_221)" transform="translate(1837 13674)">
            <path id="Path_221-2" d="M7.145 0A7.145 7.145 0 1 1 0 7.145 7.145 7.145 0 0 1 7.145 0z" class="cls-8" transform="rotate(-67 251.953 -223.847)"/>
        </g>
        <g id="Group_403" transform="rotate(78 -7425.554 8220.328)">
            <path id="Union_1" d="M-1983.689-12605.3a7.276 7.276 0 0 1-4.385-5.862l-69.7-113.227 79.208 105.488c.187.063.372.132.556.21a7.273 7.273 0 0 1 3.854 9.536 7.279 7.279 0 0 1-6.7 4.434 7.253 7.253 0 0 1-2.833-.579z" class="cls-8" transform="translate(2088.35 12724.388)"/>
        </g>
        <g filter="url(#Path_227)" transform="translate(1837 13674)">
            <path id="Path_227-2" fill="none" stroke="#45ff03" stroke-width="3px" d="M3772.385 13700.515a191.6 191.6 0 0 0-56.379-32.947 210.9 210.9 0 0 0-141.1-1.975 176.774 176.774 0 0 0-35.843 17.013 209.866 209.866 0 0 0-21.725 15.579 192.556 192.556 0 0 0-39.769 44.4 198.535 198.535 0 0 0-25.395 58.29c-6.948 26.925-6.078 46.414-6.078 46.414" transform="translate(-3404.42 -13610.66)"/>
        </g>
    </g>
</svg>
