<svg xmlns="http://www.w3.org/2000/svg" width="32" height="32" viewBox="0 0 32 32">
    <g fill="none" fill-rule="evenodd">
        <g>
            <g>
                <g transform="translate(-64.000000, -256.000000) translate(32.000000, 232.000000) translate(32.000000, 24.000000)">
                    <circle cx="16" cy="16" r="16" fill="#252743"/>
                    <g>
                        <path fill="#0FAA14" d="M22.456 0L9.043 6.524 12.334 8.225 5.762 12.701 9.043 14.419 0 22.456 13.877 14.419 10.703 12.701 17.54 8.225 15.025 6.524z" transform="translate(5.614035, 5.614035)"/>
                        <path fill="#FFF" d="M17.462 4.258L11.538 7.384 13.165 8.157 7.879 12.207 10.198 13.533 4.629 18.612 11.538 13.673 9.708 12.429 15.442 8.516 13.55 7.384z" transform="translate(5.614035, 5.614035)"/>
                    </g>
                </g>
            </g>
        </g>
    </g>
</svg>
