<svg xmlns="http://www.w3.org/2000/svg" width="27.367" height="27.367" viewBox="0 0 27.367 27.367">
    <defs>
        <style>
            .cls-1{fill:#e4e4e4}
        </style>
    </defs>
    <g id="gold" transform="translate(-1 -1)">
        <path id="Path_444" d="M26.416 23.953h-2.19l-1.766-3.531h-2.038v-.883a.884.884 0 0 0 .883-.883v-.883a.884.884 0 0 0-.883-.883v-2.648a.884.884 0 0 0 .883-.883v-.883a.884.884 0 0 0-.883-.883V8.945a.884.884 0 0 0 .883-.883V7.18a.884.884 0 0 0-.883-.883V3.648a.884.884 0 0 0 .883-.883v-.882A.884.884 0 0 0 20.422 1H1.883A.884.884 0 0 0 1 1.883v.883a.884.884 0 0 0 .883.883V6.3A.884.884 0 0 0 1 7.18v.883a.884.884 0 0 0 .883.883v2.648a.884.884 0 0 0-.883.883v.883a.884.884 0 0 0 .883.883v2.648a.884.884 0 0 0-.883.882v.883a.884.884 0 0 0 .883.883v2.648A.884.884 0 0 0 1 23.07v.883a.884.884 0 0 0 .883.883h3.212l-1.447 2.531v1h24.719v-1zm-3.177 0h-6.517l1.324-2.653h3.868zM10.1 21.3h6.958l-1.324 2.648H8.777zm4.141 3.531h3.7l1.324 2.648h-6.516l1.324-2.648zm4.687 0h2.1l-1.051 2.1zm.61-7.945h-4.894a5.293 5.293 0 0 0 1.631-2.648h3.264zm-12.8-3.973a4.414 4.414 0 1 1 4.414 4.414 4.419 4.419 0 0 1-4.414-4.409zm13.684.441h-4c.012-.146.023-.292.023-.441s-.01-.3-.023-.441h4zm-.883-1.766h-3.264a5.3 5.3 0 0 0-1.631-2.648h4.895zM1.883 1.883h18.539v.883H1.883zm.883 1.766h16.773V6.3H2.766zM1.883 7.18h18.539v.883h-7.159a5.266 5.266 0 0 0-4.221 0H1.883zm.883 1.766H7.66a5.3 5.3 0 0 0-1.63 2.648H2.766zm-.883 3.531h4c-.012.146-.023.292-.023.441s.01.3.023.441h-4zm.883 1.766H6.03a5.3 5.3 0 0 0 1.63 2.648H2.766zm-.883 3.531h7.159a5.268 5.268 0 0 0 4.222 0h7.159v.883H1.883zm.883 1.766h16.773v.883H9.555l-.883 1.766H2.766zm-.883 4.414v-.884h6.348l-.441.883H1.883zm4.229.883h6.975l-1.324 2.648H4.6zm14.583 2.648l1.324-2.648H25.9l1.513 2.648z" class="cls-1"/>
        <path id="Path_445" d="M23.414 24.039v-.067a2.2 2.2 0 0 0-.19-.9l-2.017-4.538-2.017 4.542a2.2 2.2 0 0 0-.19.9v.067a2.207 2.207 0 1 0 4.414 0zm-3.531 0v-.067a1.32 1.32 0 0 1 .117-.537l1.21-2.723 1.21 2.723a1.316 1.316 0 0 1 .114.538v.067a1.324 1.324 0 1 1-2.648 0z" class="cls-1" transform="translate(-10.055 -9.797)"/>
    </g>
</svg>
