<svg xmlns="http://www.w3.org/2000/svg" width="25.301" height="23.668" viewBox="0 0 25.301 23.668">
    <defs>
        <style>
            .cls-1{fill:#e4e4e4}
        </style>
    </defs>
    <g id="exchange" transform="translate(0 -16)">
        <g id="Group_583" transform="translate(10.202 29.058)">
            <g id="Group_582">
                <path id="Path_352" d="M203.265 275.265h-1.632a.816.816 0 0 1 0-1.632h1.632a.817.817 0 0 1 .816.816h.816a1.634 1.634 0 0 0-1.632-1.632h-.408V272h-.816v.816h-.408a1.632 1.632 0 0 0 0 3.265h1.632a.816.816 0 1 1 0 1.632h-1.632a.817.817 0 0 1-.816-.816H200a1.634 1.634 0 0 0 1.632 1.632h.408v.816h.816v-.816h.408a1.632 1.632 0 1 0 0-3.265z" class="cls-1" transform="translate(-200 -272)"/>
            </g>
        </g>
        <g id="Group_585" transform="translate(0 16)">
            <g id="Group_584">
                <path id="Path_353" d="M18.363 16a6.964 6.964 0 0 0-5.715 3.008 6.934 6.934 0 1 0-6.3 10.837 6.928 6.928 0 0 0 10.327 8.529l-.475-.664a6.121 6.121 0 1 1 1.1-1.01l.621.53a6.9 6.9 0 0 0 1.028-7.383 6.885 6.885 0 0 0 3.441-1.267l-.475-.664a6.073 6.073 0 0 1-3.394 1.136 6.934 6.934 0 0 0-5.278-3.228 6.89 6.89 0 0 0-.13-6.031 6.119 6.119 0 1 1 9.9 7.114l.621.53A6.933 6.933 0 0 0 18.363 16zm-6.023 9.81a6.929 6.929 0 0 0-5.56 3.241 6.12 6.12 0 1 1 5.56-3.241z" class="cls-1" transform="translate(0 -16)"/>
            </g>
        </g>
        <g id="Group_587" transform="translate(15.507 19.265)">
            <g id="Group_586">
                <path id="Path_354" d="M306.857 86.529a1.226 1.226 0 0 1-1.224-1.224V84.9h.816v-.816h-.816v-.816h.816v-.816h-.816v-.412a1.224 1.224 0 1 1 2.448 0h.816a2.04 2.04 0 0 0-4.081 0v.408H304v.816h.816v.816H304v.82h.816v.408a2.04 2.04 0 0 0 4.081 0h-.816a1.226 1.226 0 0 1-1.224 1.221z" class="cls-1" transform="translate(-304 -80)"/>
            </g>
        </g>
        <g id="Group_589" transform="translate(4.179 18.999)">
            <g id="Group_588">
                <path id="Path_355" d="M85.094 78.065l2.35-2.742-.619-.531-2.139 2.495-2.139-2.495-.619.531 2.35 2.742v1.073h-.816v.816h.816v.816h-.816v.816h.816v.408h.816v-.408h.816v-.816h-.816v-.816h.816v-.816h-.816z" class="cls-1" transform="translate(-81.928 -74.792)"/>
            </g>
        </g>
    </g>
</svg>
