<svg xmlns="http://www.w3.org/2000/svg" width="115.311" height="140.192" viewBox="0 0 115.311 140.192">
    <defs>
        <filter id="Path_463" width="88.51" height="140.192" x="0" y="0" filterUnits="userSpaceOnUse">
            <feOffset dy="10"/>
            <feGaussianBlur result="blur" stdDeviation="1"/>
            <feFlood/>
            <feComposite in2="blur" operator="in"/>
            <feComposite in="SourceGraphic"/>
        </filter>
        <filter id="Path_464" width="69.099" height="86.281" x="46.212" y="53.909" filterUnits="userSpaceOnUse">
            <feOffset dy="10"/>
            <feGaussianBlur result="blur-2" stdDeviation="1"/>
            <feFlood/>
            <feComposite in2="blur-2" operator="in"/>
            <feComposite in="SourceGraphic"/>
        </filter>
        <style>
            .cls-1{fill:#fff}
        </style>
    </defs>
    <g id="lightning">
        <g filter="url(#Path_463)" transform="translate(-5.995 .001) translate(6)">
            <path id="Path_463-2" d="M77.555 66.944a1.738 1.738 0 0 0-1.626-1.122h-15.3l30.4-32.044a1.739 1.739 0 0 0-1.262-2.935H68.331L86.447 2.676A1.739 1.739 0 0 0 83.989.311l-59.554 41.6a1.739 1.739 0 0 0 .994 3.164h24.908l-31.11 31.116a1.738 1.738 0 0 0 1.229 2.968h21.221L9.322 124.438a1.739 1.739 0 0 0 2.57 2.312l65.193-57.888a1.74 1.74 0 0 0 .47-1.918zm-56.424 46.95L46.47 78.432a1.739 1.739 0 0 0-1.414-2.751h-20.4l31.112-31.112a1.739 1.739 0 0 0-1.23-2.969H30.96l47.8-33.388-15.077 23.43a1.738 1.738 0 0 0 1.462 2.683H85.72l-30.4 32.04a1.738 1.738 0 0 0 1.261 2.935h14.771z" class="cls-1" transform="translate(-6)"/>
        </g>
        <g filter="url(#Path_464)" transform="translate(-5.995 .001) translate(6)">
            <path id="Path_464-2" d="M118.1 54.771a1.741 1.741 0 0 0-2.265-.188L64.166 92.219a1.739 1.739 0 0 0 1.023 3.145H80.81l-24.895 29.3a1.739 1.739 0 0 0 2.343 2.536l56.266-40.614a1.739 1.739 0 0 0-1.018-3.149H98.251l20-26.4a1.74 1.74 0 0 0-.151-2.266zM93.366 84.128a1.739 1.739 0 0 0 1.384 2.789h13.375L67.848 115.99l18.044-21.24a1.739 1.739 0 0 0-1.325-2.865H70.528l37.835-27.55z" class="cls-1" transform="translate(-6.29 -.34)"/>
        </g>
    </g>
</svg>
