<svg xmlns="http://www.w3.org/2000/svg" width="14" height="18" viewBox="0 0 14 18">
    <g fill="none" fill-rule="evenodd">
        <g>
            <g>
                <g>
                    <path d="M0 0L24 0 24 24 0 24z" transform="translate(-1208 -421) translate(31 389) translate(1172 29)"/>
                    <path fill="#F4F40C" fill-rule="nonzero" d="M16 9v10H8V9h8m-1.5-6h-5l-1 1H5v2h14V4h-3.5l-1-1zM18 7H6v12c0 1.1.9 2 2 2h8c1.1 0 2-.9 2-2V7z" transform="translate(-1208 -421) translate(31 389) translate(1172 29)"/>
                </g>
            </g>
        </g>
    </g>
</svg>
