<svg xmlns="http://www.w3.org/2000/svg" width="320" height="267" viewBox="0 0 320 267">
    <defs>
        <linearGradient id="4zzhewlrlb" x1="49.999%" x2="49.999%" y1="100%" y2="0%">
            <stop offset="0%" stop-color="gray" stop-opacity=".25"/>
            <stop offset="54%" stop-color="gray" stop-opacity=".12"/>
            <stop offset="100%" stop-color="gray" stop-opacity=".1"/>
        </linearGradient>
        <linearGradient id="z9vmg0pgqc" x1="50%" x2="50%" y1="100%" y2="0%">
            <stop offset="0%" stop-color="gray" stop-opacity=".25"/>
            <stop offset="54%" stop-color="gray" stop-opacity=".12"/>
            <stop offset="100%" stop-color="gray" stop-opacity=".1"/>
        </linearGradient>
        <linearGradient id="lt0a4biejd" x1="50%" x2="50%" y1="100.004%" y2="0%">
            <stop offset="0%" stop-color="gray" stop-opacity=".25"/>
            <stop offset="54%" stop-color="gray" stop-opacity=".12"/>
            <stop offset="100%" stop-color="gray" stop-opacity=".1"/>
        </linearGradient>
        <linearGradient id="dg9qiqs63e" x1="50.02%" x2="50.02%" y1="100%" y2="0%">
            <stop offset="0%" stop-color="gray" stop-opacity=".25"/>
            <stop offset="54%" stop-color="gray" stop-opacity=".12"/>
            <stop offset="100%" stop-color="gray" stop-opacity=".1"/>
        </linearGradient>
        <filter id="z5pgu4m52a" width="135%" height="144.3%" x="-17.5%" y="-22.1%" filterUnits="objectBoundingBox">
            <feOffset dy="8" in="SourceAlpha" result="shadowOffsetOuter1"/>
            <feGaussianBlur in="shadowOffsetOuter1" result="shadowBlurOuter1" stdDeviation="7.5"/>
            <feColorMatrix in="shadowBlurOuter1" result="shadowMatrixOuter1" values="0 0 0 0 0 0 0 0 0 0 0 0 0 0 0 0 0 0 0.5 0"/>
            <feMerge>
                <feMergeNode in="shadowMatrixOuter1"/>
                <feMergeNode in="SourceGraphic"/>
            </feMerge>
        </filter>
    </defs>
    <g fill="none" fill-rule="evenodd">
        <g fill-rule="nonzero">
            <g filter="url(#z5pgu4m52a)" transform="translate(-1055 -2232) translate(1088 2265)">
                <g fill="url(#4zzhewlrlb)" opacity=".5" transform="translate(14)">
                    <rect width="89.82" height="135.833" x=".086" rx="4.5"/>
                </g>
                <rect width="88" height="133" x="15" y="1" fill="#F2F2F2" opacity=".749" rx="4.5"/>
                <g fill="#FFF" opacity=".5" transform="translate(24 25)">
                    <rect width="17.685" height="16.036" rx="4"/>
                </g>
                <rect width="47" height="2" x="47" y="25" fill="#DBDBDE" rx="1"/>
                <rect width="39" height="2" x="47" y="31" fill="#DBDBDD" rx="1"/>
                <g fill="#DBDBDD" opacity=".5" transform="translate(24 50)">
                    <rect width="17.685" height="16.036" x=".049" y=".038" rx="4.5"/>
                </g>
                <rect width="47" height="2" x="47" y="50" fill="#DBDBDD" rx="1"/>
                <rect width="47" height="2" x="47" y="55" fill="#DBDBDD" rx="1"/>
                <g fill="#DBDBDD" opacity=".5" transform="translate(24 75)">
                    <rect width="17.685" height="16.036" x=".049" y=".096" rx="4.5"/>
                </g>
                <rect width="47" height="2" x="47" y="75" fill="#DBDBDD" rx="1"/>
                <rect width="5" height="2" x="47" y="80" fill="#DBDBDD" rx="1"/>
                <g fill="url(#z9vmg0pgqc)" opacity=".5" transform="translate(70 44)">
                    <rect width="88.817" height="79.748" x=".097" y=".193" rx="4.5"/>
                </g>
                <rect width="86" height="78" x="72" y="44" fill="#9BBFFD" rx="4.5"/>
                <g fill="#6095EF" opacity=".5" transform="translate(80 61)">
                    <rect width="18.524" height="16.781" x=".227" y=".141" rx="4.5"/>
                </g>
                <rect width="50" height="2" x="104" y="61" fill="#7EAAF6" rx="1"/>
                <rect width="50" height="2" x="104" y="67" fill="#7EAAF6" rx="1"/>
                <rect width="76" height="2" x="78" y="87" fill="#E0E0E0" rx="1"/>
                <rect width="76" height="2" x="78" y="92" fill="#E0E0E0" rx="1"/>
                <rect width="76" height="2" x="78" y="100" fill="#E0E0E0" rx="1"/>
                <rect width="57" height="2" x="78" y="105" fill="#E0E0E0" rx="1"/>
                <g fill="url(#lt0a4biejd)" opacity=".5" transform="translate(0 69)">
                    <path d="M161.147 4.817l.316-1.407-.443 1.374c-11.5-3.103-23.356-4.7-35.268-4.752C39.92-.474 0 75.312 0 75.312l81.34 42.876s9.976-30.91 45.41-29.902c2.437.067 4.868.28 7.28.636l-10.78 33.547c-1.255 1.784-1.439 4.108-.48 6.066.959 1.958 2.908 3.24 5.088 3.346 2.179.105 4.243-.983 5.387-2.839v-.016c.56-.909.864-1.95.882-3.017 0-.18 0-.361-.02-.539l7.793-34.789c23.216 7.134 30.251 27.505 30.251 27.505L254 77.306s-30.739-55.636-92.853-72.49z"/>
                </g>
                <path fill="#EAECC0" d="M2 144.549L82.26 187s9.847-30.609 44.808-29.622c2.463.067 4.919.285 7.355.654L161 74.742c-11.384-3.095-23.123-4.688-34.918-4.74C41.392 69.508 2 144.55 2 144.55z"/>
                <path stroke="#979797" d="M160.531 75L134 158.106C162.953 162.514 171.386 187 171.386 187L252 146.617S221.71 91.649 160.531 75z"/>
                <path fill="#F55F44" d="M133.885 193.62L161 73l-37.894 117.653c-1.264 1.762-1.46 4.072-.51 6.02.951 1.947 2.895 3.221 5.068 3.32 2.172.1 4.226-.991 5.352-2.844v-.016c.554-.897.856-1.926.874-2.98.017-.186.009-.358-.005-.533z"/>
                <g fill="url(#dg9qiqs63e)" opacity=".7" transform="translate(117 15)">
                    <path d="M27.095 54.262l-.709-.133 1.398-5.136c2.2-16.492-6.111-18.165-9.227-18.222-.359-.131-.724-.242-1.095-.332v-1.947c4.008-.989 7.042-4.27 7.716-8.343h.027c.495 0 .898-.754.898-1.684.02-.493-.118-.98-.392-1.39.036-.36.054-.72.054-1.081.002-2.942-1.203-5.755-3.333-7.784-.143-.719-.4-1.41-.762-2.049-.765-1.351-2.038-2.752-1.519-4.214l-3.36.346L16.76.078c-1.048.19-1.489 1.404-2.11 2.269-1.498 2.081-4.5 2.37-6.487 3.993-.676.54-2.194 2.227-1.905 3.328-1.334 1.836-2.052 4.048-2.049 6.318 0 .36.018.72.054 1.081-.274.41-.411.897-.392 1.39 0 .93.403 1.684.898 1.684h.027c.674 4.073 3.708 7.354 7.716 8.343v1.946c-.371.09-.736.202-1.095.333C8.3 30.82-.01 32.483 2.19 48.985l1.397 5.136-.332.062c-.998.187-1.882.762-2.456 1.6-.575.838-.793 1.87-.606 2.87l5.522 29.519c.117.629.722 1.044 1.35.927l.971-.181v.573c-1.098.543-1.794 1.662-1.794 2.887v.365h6.508v-.365c0-1.134-.597-2.184-1.57-2.765v-1.285l.886-.165c.629-.117 1.044-.722.927-1.351L7.819 59.079h14.343l-5.167 27.735c-.117.63.298 1.235.927 1.352l.886.165v1.284c-.973.582-1.57 1.632-1.57 2.766v.365h6.508v-.365c0-1.226-.696-2.345-1.795-2.887v-.574l.97.182c.63.116 1.234-.299 1.352-.928l5.578-29.89c.169-.899-.027-1.828-.545-2.582-.517-.755-1.312-1.273-2.211-1.44z"/>
                </g>
                <path fill="#FDB797" d="M125 101H128V105H125zM135 101H138V105H135z"/>
                <path fill="#4D8AF0" d="M122 67H142V74H122z"/>
                <g fill="#030E21" opacity=".05">
                    <path d="M0.198 0.11H19.900000000000002V7.3790000000000004H0.198z" transform="translate(122 67)"/>
                </g>
                <path fill="#000" d="M122 68.155S129.463 70 132 70s10-1.845 10-1.845V67h-20v1.155z" opacity=".1"/>
                <path fill="#F55F44" d="M142 67.312S134.537 69 132 69s-10-1.688-10-1.688V55.706c0-5.36 4.477-9.706 10-9.706s10 4.346 10 9.706v11.606z"/>
                <path fill="#FDB797" d="M129 41h5v5.882c0 1.17-.97 2.118-2.166 2.118h-.666c-1.196 0-2.165-.948-2.165-2.118V41H129z"/>
                <path fill="#1B407E" d="M128.866 102.182l-4.192.795c-.744.137-1.457-.362-1.597-1.117l-5-27.242c-.221-1.205.037-2.45.718-3.46.68-1.01 1.729-1.705 2.913-1.93l1.081-.205c.744-.137 1.457.362 1.597 1.117l5.59 30.407c.068.366-.011.745-.22 1.052-.208.307-.528.517-.89.583zM135.126 102.182l4.166.795c.739.137 1.448-.362 1.587-1.118l5.052-27.698c.41-2.257-1.044-4.427-3.248-4.849l-1.519-.29c-.739-.136-1.447.363-1.587 1.119l-5.554 30.408c-.066.366.013.745.22 1.051.207.306.525.516.883.582z"/>
                <path fill="#000" d="M129 44.686c1.642.419 3.358.419 5 0V41h-5v3.686z" opacity=".1"/>
                <circle cx="131.5" cy="32.5" r="10.5" fill="#A03724"/>
                <circle cx="132" cy="35" r="10" fill="#FDB797"/>
                <path fill="#B83C26" d="M124.905 23.079c1.942-1.574 4.88-1.855 6.341-3.876.607-.84 1.039-2.02 2.064-2.203l.03 2.149 3.297-.336c-.508 1.419.736 2.782 1.487 4.091.55.967.852 2.055.876 3.166-1.14.68-2.555-.062-3.825-.458-1.27-.395-2.547-.425-3.846-.46-.664-.047-1.33-.01-1.984.108-.566.151-1.118.35-1.649.598-.874.362-3.635 1.734-4.445.85-.913-1 .904-3.021 1.654-3.63z"/>
                <path fill="#000" d="M125.513 29.886c.531.304 1.116.492 1.72.553 2.491.356 5.028.058 7.382-.866.387 1.02 1.324 1.723 2.327 2.054 1.003.332 2.067.349 3.118.365.231.028.464-.019.67-.132.468-.33.24-1.087-.032-1.601l-1.355-2.566c-.4-.757-.813-1.531-1.432-2.103-.778-.72-1.81-1.056-2.827-1.27-2.406-.5-4.89-.414-7.258.252-2.533.7-5.786 3.119-2.313 5.314z" opacity=".1"/>
                <path fill="#B83C26" d="M125.513 29.886c.531.304 1.116.492 1.72.553 2.491.356 5.028.058 7.382-.866.387 1.02 1.324 1.723 2.327 2.054 1.003.332 2.067.349 3.118.365.231.028.464-.019.67-.132.468-.33.24-1.087-.032-1.601l-1.355-2.566c-.4-.757-.813-1.531-1.432-2.103-.778-.72-1.81-1.056-2.827-1.27-2.406-.5-4.89-.414-7.258.252-2.533.694-5.786 3.121-2.313 5.314z"/>
                <ellipse cx="142" cy="35.5" fill="#FDB797" rx="1" ry="1.5"/>
                <ellipse cx="122" cy="35.5" fill="#FDB797" rx="1" ry="1.5"/>
                <path fill="#F55F44" d="M129 47.055s-12.17-1.949-9.659 17.398L120.805 70l4.19-.172s-2.719-6.46-1.048-10.749c1.67-4.29 5.053-12.024 5.053-12.024zM134 47.055s12.17-1.949 9.659 17.398L142.195 70l-4.19-.172s2.719-6.46 1.048-10.749C137.383 54.79 134 47.055 134 47.055z"/>
                <circle cx="123.5" cy="70.5" r="2.5" fill="#FDB797"/>
                <circle cx="140.5" cy="70.5" r="2.5" fill="#FDB797"/>
                <path fill="#333" d="M126.604 103h.802c1.433 0 2.594 1.054 2.594 2.355V106h-6v-.645c0-.626.275-1.227.763-1.669.49-.442 1.152-.688 1.841-.686zM136.604 103h.802c1.433 0 2.594 1.054 2.594 2.355V106h-6v-.645c0-.626.275-1.227.763-1.669.49-.442 1.152-.688 1.841-.686z"/>
                <path fill="#000" d="M124.275 57s-.967 4.193.725 6M139.725 57s.967 4.193-.725 6" opacity=".1"/>
            </g>
        </g>
    </g>
</svg>
