<svg xmlns="http://www.w3.org/2000/svg" width="308" height="229" viewBox="0 0 308 229">
    <defs>
        <filter id="cp8a2jdnna" width="136.8%" height="154.6%" x="-18.4%" y="-27.3%" filterUnits="objectBoundingBox">
            <feOffset dy="8" in="SourceAlpha" result="shadowOffsetOuter1"/>
            <feGaussianBlur in="shadowOffsetOuter1" result="shadowBlurOuter1" stdDeviation="7.5"/>
            <feColorMatrix in="shadowBlurOuter1" result="shadowMatrixOuter1" values="0 0 0 0 0 0 0 0 0 0 0 0 0 0 0 0 0 0 0.5 0"/>
            <feMerge>
                <feMergeNode in="shadowMatrixOuter1"/>
                <feMergeNode in="SourceGraphic"/>
            </feMerge>
        </filter>
    </defs>
    <g fill="none" fill-rule="evenodd">
        <g fill-rule="nonzero">
            <g filter="url(#cp8a2jdnna)" transform="translate(-265 -2681) translate(298 2714)">
                <path fill="#F55F44" d="M174.428 150c5.55 3.554 11.968 5.548 18.572 5.768-.118.277-.25.548-.397.811-.768 1.406-1.855 2.617-3.174 3.538-3.183 2.22-7.35 2.498-10.805.721-3.456-1.777-5.624-5.313-5.624-9.17V150h1.428zM214 150v1.23c.002 4.922-3.231 9.22-7.853 10.435-4.62 1.216-9.452-.958-11.733-5.282-.153-.28-.291-.57-.414-.867.305.01.606.013.91.013 6.736.008 13.342-1.905 19.09-5.529zM227.925 23.095c-.305-.045-.615-.074-.925-.095 3.52 8.252 3.764 17.57.68 26 .31-.037.616-.087.922-.145 6.165-1.215 10.561-6.787 10.393-13.172-.167-6.384-4.85-11.71-11.07-12.588zM162 23c-.31.02-.62.05-.925.095-6.22.879-10.903 6.204-11.07 12.588-.168 6.385 4.228 11.957 10.393 13.172.306.058.611.108.921.145-3.083-8.43-2.84-17.748.681-26z"/>
                <path fill="#F55F44" d="M228.17 23.41c-7.244-17.303-26.425-26.298-44.36-20.802-17.936 5.496-28.785 23.692-25.09 42.083 3.695 18.39 20.73 30.985 39.396 29.128 18.667-1.858 32.885-17.562 32.884-36.32-.002-4.837-.964-9.626-2.83-14.09zm-.255 26.515c-6.436 17.298-25.012 26.821-42.813 21.95-17.802-4.871-28.94-22.526-25.671-40.69C162.701 13.023 179.296.36 197.679 2c18.383 1.641 32.472 17.044 32.472 35.5-.001 4.241-.759 8.45-2.236 12.425z"/>
                <path fill="#3F3D56" d="M213.602 29h-37.204c-4.086 0-7.398 3.358-7.398 7.5 0 4.142 3.312 7.5 7.398 7.5h37.204c4.086 0 7.398-3.358 7.398-7.5 0-4.142-3.312-7.5-7.398-7.5z"/>
                <path fill="#F55F44" d="M194.49 81c-20.378.01-37.02 16.284-37.48 36.653-.46 20.368 15.431 37.377 35.789 38.305.396.021.796.034 1.196.034.167.008.33.008.496.008C215.207 156 232 139.21 232 118.5S215.207 81 194.49 81zm19.043 68.825c-5.734 3.5-12.324 5.35-19.042 5.342-.304 0-.605-.005-.909-.013-.129 0-.258-.004-.387-.012-18.205-.633-33.19-14.52-35.199-32.62-2.008-18.1 9.567-34.934 27.19-39.54 17.623-4.608 35.96 4.407 43.07 21.173 7.11 16.767.842 36.21-14.723 45.67z"/>
                <path fill="#757575" d="M221.694 109h-16.388c-2.378 0-4.306-1.79-4.306-4s1.928-4 4.306-4h16.388c2.378 0 4.306 1.79 4.306 4s-1.928 4-4.306 4z"/>
                <circle cx="206.5" cy="104.5" r="2.5" fill="#F2F2F2"/>
                <circle cx="213.5" cy="104.5" r="2.5" fill="#F2F2F2"/>
                <circle cx="220.5" cy="104.5" r="2.5" fill="#E8E827"/>
                <circle cx="65" cy="15" r="13" fill="#B74E4E"/>
                <path fill="#FFB8B8" d="M113.223 61.942c-.249.377-.553.713-.9 1-1.014.84-2.337 1.205-3.636 1.004-1.299-.2-2.45-.949-3.166-2.056-.082-.128-.157-.26-.225-.395L84.82 59.51c-3.318-.334-6.025-2.816-6.659-6.106L77 47.25 84.99 46l1.435 4.93 19.962 4.927c.155-.136.319-.261.49-.375 1.837-1.197 4.257-.932 5.794.632 1.537 1.565 1.768 4 .552 5.829z"/>
                <path fill="#2F2E41" d="M87.6 50.463l-8.96 2.47c-1.008.277-2.047-.332-2.32-1.361L73.18 39.714c-.696-2.63.666-5.373 3.156-6.355 2.49-.982 5.305.113 6.522 2.538l5.933 11.819c.26.519.277 1.13.046 1.663-.231.534-.686.932-1.238 1.084z"/>
                <path fill="#FFB8B8" d="M82.001 158L86.744 158 89 138 82 138z"/>
                <path fill="#2F2E41" d="M81.06 156.105h16.197v6.27h-9.94c-3.456 0-6.258-2.807-6.258-6.27z" transform="rotate(179.997 89.158 159.24)"/>
                <path fill="#FFB8B8" d="M36 152.217L40.775 154 50 136.632 42.953 134z"/>
                <path fill="#2F2E41" d="M34.084 153.437l16.202.01.004 6.269-9.942-.006c-3.457-.003-6.262-2.811-6.264-6.273z" transform="rotate(-159.315 42.187 156.576)"/>
                <path fill="#58585F" d="M82.126 153c-.82 0-1.546-.527-1.798-1.305l-13.15-40.453c-.08-.245-.302-.417-.56-.434-.259-.016-.5.127-.611.36l-18.225 38.625c-.408.865-1.4 1.288-2.31.987l-7.178-2.383c-.946-.316-1.485-1.309-1.232-2.27l11.164-42.122c1.168-4.461 2.012-9.001 2.525-13.584.782-7.546 4.334-14.54 9.974-19.638 2.462-2.247 4.063-5.278 4.527-8.572l.03-.211 16.35 2.571 10.355 84.174c.11.931-.48 1.802-1.387 2.05l-7.98 2.14c-.16.043-.327.065-.494.065z"/>
                <circle cx="71" cy="18" r="10" fill="#FFB8B8"/>
                <path fill="#F55F44" d="M80.47 65c-.033 0-.066 0-.098-.002l-16.296-.791c-.94-.041-1.707-.747-1.799-1.657l-2.226-21.068c-.33-3.133.957-6.222 3.44-8.249 2.482-2.027 5.838-2.73 8.96-1.878 1.275.34 2.463.932 3.488 1.741 11.463 9.138 7.767 25.695 6.361 30.552-.226.8-.976 1.353-1.83 1.352z"/>
                <path fill="#FFB8B8" d="M66.19 80c-.467 0-.933-.067-1.38-.198-1.309-.378-2.387-1.272-2.962-2.456-.576-1.184-.595-2.546-.052-3.744.063-.137.133-.272.21-.402L51.915 55.182c-1.624-2.927-1.044-6.525 1.427-8.85L57.981 42l5.683 5.924-3.425 3.885 7.26 19.206c.206.053.409.12.606.2 2.09.863 3.258 3.009 2.794 5.137-.464 2.128-2.43 3.652-4.708 3.648z"/>
                <path fill="#2F2E41" d="M61.822 51.532L54.66 45.44c-.806-.687-.886-1.877-.18-2.66l8.141-9.01c1.806-1.998 4.876-2.35 7.113-.817 2.238 1.534 2.92 4.46 1.583 6.779l-6.52 11.304c-.287.497-.789.841-1.366.938-.578.096-1.17-.066-1.61-.44z"/>
                <path fill="#923C3C" d="M63.412 27.636c.944.34 2.103.64 2.846-.065.726-.688.593-1.945.166-2.872-.428-.926-1.09-1.75-1.294-2.76-.291-1.444.462-2.946 1.537-3.888 1.076-.942 2.429-1.437 3.75-1.914l7.248-2.612c1.794-.647 3.727-1.407 4.73-3.108 1.453-2.463.125-5.983-2.257-7.42-2.383-1.436-5.393-1.169-7.963-.158-1.422.559-2.775 1.329-4.245 1.722-2.902.776-6.201.08-8.752 1.739-2.22 1.444-3.249 4.391-3.174 7.149.075 2.757 1.076 5.383 2.132 7.905.628 1.5 1.3 3.018 2.363 4.211 1.065 1.194 2.603 2.029 4.139 1.809l-1.226.262z"/>
                <circle cx="53.5" cy="8.5" r="8.5" fill="#923C3C"/>
                <path fill="#3F3D56" d="M122.552 56.184l-.153-.021.578-4.175c.185-1.335-.756-2.566-2.1-2.749l-8.912-1.216c-1.345-.183-2.585.75-2.77 2.084l-3.172 22.905c-.185 1.335.756 2.566 2.1 2.749l8.912 1.216c1.345.183 2.585-.75 2.77-2.084l2.182-15.758.153.02.412-2.971z"/>
                <path fill="#5C5A75" d="M120.494 51.161l-1.105-.149c.069.262 0 .54-.184.742-.183.201-.457.3-.73.263l-4.85-.653c-.273-.036-.51-.204-.63-.447-.122-.242-.112-.528.026-.762l-1.032-.14c-.458-.06-.922.058-1.29.332-.369.274-.611.68-.674 1.128l-3.009 21.44c-.13.934.536 1.795 1.49 1.924l8.505 1.145c.954.128 1.833-.525 1.964-1.46l3.009-21.439c.13-.934-.536-1.795-1.49-1.924z"/>
                <circle cx="114.5" cy="64.5" r="4.5" fill="#E8E827"/>
                <path fill="#5C5A75" d="M113.567 66c-.104 0-.205-.038-.288-.109l-.005-.004-1.084-.947c-.137-.119-.208-.312-.186-.508.022-.195.134-.361.293-.436.16-.076.342-.048.479.072l.702.614 1.658-2.467c.078-.116.193-.191.32-.21.126-.02.254.02.355.108l-.01.016.01-.015c.211.184.251.529.09.77l-1.951 2.902c-.092.135-.233.214-.383.214z"/>
                <path fill="#CCC" d="M241.658 163H.34c-.188 0-.341-.224-.341-.5s.153-.5.341-.5h241.317c.189 0 .342.224.342.5s-.153.5-.342.5z"/>
            </g>
        </g>
    </g>
</svg>
