<svg xmlns="http://www.w3.org/2000/svg" width="24" height="24" viewBox="0 0 24 24">
    <g>
        <g>
            <path fill="none" d="M0 0h24v24H0z" transform="translate(-3990 -16753) translate(3990 16753)"/>
            <path fill="#afafaf" d="M12 5.83L15.17 9l1.41-1.41L12 3 7.41 7.59 8.83 9zm0 12.34L8.83 15l-1.41 1.41L12 21l4.59-4.59L15.17 15z" transform="translate(-3990 -16753) translate(3990 16753)"/>
        </g>
    </g>
</svg>
