<svg xmlns="http://www.w3.org/2000/svg" width="10" height="10" viewBox="0 0 10 10">
    <g fill="none" fill-rule="evenodd" stroke-linecap="round" stroke-linejoin="round">
        <g stroke="#48D74D" stroke-width="1.5">
            <g>
                <g>
                    <g>
                        <g>
                            <g>
                                <path d="M7.619 0L3.792 3.463 0 0" transform="translate(-520 -351) translate(474 145) translate(42 95) translate(0 1) rotate(-180 9 62) rotate(-180 6.5 6.5) rotate(-180 3.81 1.732)"/>
                                <path d="M7.619 4.19L3.792 7.654 0 4.19" transform="translate(-520 -351) translate(474 145) translate(42 95) translate(0 1) rotate(-180 9 62) rotate(-180 6.5 6.5) rotate(-180 3.81 5.922)"/>
                            </g>
                        </g>
                    </g>
                </g>
            </g>
        </g>
    </g>
</svg>
